C:\Users\kathesan\Documents\Projet\java\banque\bank-database\src\main\java\fr\jdmassard\java\bankmanagerapp\bankdatabase\dao\HibernateClientDAO.java
C:\Users\kathesan\Documents\Projet\java\banque\bank-database\src\main\java\fr\jdmassard\java\bankmanagerapp\bankdatabase\run\Run.java
C:\Users\kathesan\Documents\Projet\java\banque\bank-database\src\main\java\fr\jdmassard\java\bankmanagerapp\bankdatabase\entities\Client.java
C:\Users\kathesan\Documents\Projet\java\banque\bank-database\src\main\java\fr\jdmassard\java\bankmanagerapp\bankdatabase\utils\BankException.java
C:\Users\kathesan\Documents\Projet\java\banque\bank-database\src\main\java\fr\jdmassard\java\bankmanagerapp\bankdatabase\dao\HibernateAccountDAO.java
C:\Users\kathesan\Documents\Projet\java\banque\bank-database\src\main\java\fr\jdmassard\java\bankmanagerapp\bankdatabase\entities\Account.java
C:\Users\kathesan\Documents\Projet\java\banque\bank-database\src\main\java\fr\jdmassard\java\bankmanagerapp\bankdatabase\dao\AccountDAO.java
C:\Users\kathesan\Documents\Projet\java\banque\bank-database\src\main\java\fr\jdmassard\java\bankmanagerapp\bankdatabase\dao\ClientDAO.java
