<?xml version="1.0" encoding="UTF-8"?>
<session version="1.0">
<refactoring comment="Rename resource &apos;bank-www/src/main/webapp/WEB-INF/views/listClientSoloUser.jsp&apos; to &apos;listAccountSoloUser.jsp&apos;" description="Rename resource &apos;listClientSoloUser.jsp&apos;" flags="7" id="org.eclipse.ltk.core.refactoring.rename.resource" input="src/main/webapp/WEB-INF/views/listClientSoloUser.jsp" name="listAccountSoloUser.jsp" stamp="1610490807055" updateReferences="true"/>
</session>